Onderzoeksontwerp en Beschrijvende Statistiek - 4 Data Bewerken
…
kun je simpele numerieke samenvattingen maken van datatabellen

ben je bekend met de belangrijkste ‘werkwoorden’ uit het tidyverse: filter(), arrange(), select(), mutate(), summarize(), group_by() en de pipe operator %>%.

codeboek

In deze cursus leer je werken met zo’n 100 veelgebruikte functies in R. Het is belangrijk om voor jezelf een goed overzicht te houden van deze functies. Werk hier actief aan door een eigen codeboek aan te maken. Voeg tijdens of na afloop van het bestuderen van dit hoofdstuk de codes toe aan jouw codeboek.

4.1 de pipe-operator

In het tidyverse zit een hele verzameling aan werkwoorden die je kunt gebruiken om bewerkingen op je data uit te voeren. Deze werkwoorden hebben gemeenschappelijk dat ze altijd een bewerking uitvoeren op een datatabel (tibble) en (meestal) weer een nieuwe datatabel opleveren. In het vorige hoofdstuk hebben we bijvoorbeeld distinct() gezien. Dit ‘werkwoord’ geeft van een variabele in een datatabel de unieke waarden terug.

distinct(.data = wordbank_datasets, language)

# A tibble: 42 × 1
   language             
   <fct>                
 1 British Sign Language
 2 Cantonese            
 3 Croatian             
 4 Danish               
 5 English (American)   
 6 French (Quebecois)   
 7 German               
 8 Hebrew               
 9 Italian              
10 Mandarin (Beijing)   
# ℹ 32 more rows

De datatabel waarop de bewerking wordt uitgevoerd (hier: wordbank_datasets) staat altijd als eerste argument van de functie genoemd. Om de code overzichtelijker te maken en om het mogelijk te maken om meerdere operaties na elkaar uit te voeren bestaat de pipe-operator %>%. Deze operator maakt het mogelijk om de datatabel uit de functie-aanroep te halen en ervoor te zetten:

wordbank_datasets %>% distinct(language)

# A tibble: 42 × 1
   language             
   <fct>                
 1 British Sign Language
 2 Cantonese            
 3 Croatian             
 4 Danish               
 5 English (American)   
 6 French (Quebecois)   
 7 German               
 8 Hebrew               
 9 Italian              
10 Mandarin (Beijing)   
# ℹ 32 more rows
…
data %>% functie1() %>% functie2()

Wij schrijven de pipe als %>%, omdat deze manier ook gehanteerd wordt in de overige literatuur die we gebruiken in deze cursus. De nieuwste versie van tidyverse schrijft de pipe als |>. In ons geval zijn deze twee schrijfwijzen equivalent, maar wij gebruiken in het dictaat en uitwerkingen dus %>%.

4.2 Observaties uitlichten

4.2.1 filter()

Het komt vaak voor dat je maar een deel van de data wilt bekijken. De functie filter() kun je gebruiken om een selectie te maken van de observaties die je wilt gaan bekijken. In de datatabel wordbank_datasets komen bijvoorbeeld twee typen vragenlijsten voor (variabele: form_type): vragenlijsten van type WG wat staat voor Words & Gestures zijn afgenomen bij ouders van babies en vragenlijsten van type WS wat staat voor Words & Sentences zijn afgenomen bij ouders van peuters. Wanneer we onze analyse nu willen beperken tot alleen de vragenlijsten afgenomen bij babies kunnen we dit met filter() aangeven:

wordbank_datasets %>% 
  filter(form_type == "WS")

# A tibble: 48 × 9
   instrument_id language           form  form_type age_min age_max has_grammar
   <fct>         <fct>              <fct> <fct>       <dbl>   <dbl>       <dbl>
 1 2             Cantonese          WS    WS             16      30           0
 2 4             Croatian           WS    WS             16      30           0
 3 6             Danish             WS    WS             16      36           1
 4 8             English (American) WS    WS             16      30           1
 5 10            French (Quebecois) WS    WS             16      30           1
 6 11            German             WS    WS             18      30           0
 7 13            Hebrew             WS    WS             25      36           1
 8 15            Italian            WS    WS             18      36           0
 9 17            Mandarin (Beijing) TC    WS             17      30           0
10 18            Mandarin (Beijing) WS    WS             16      30           0
# ℹ 38 more rows
# ℹ 2 more variables: unilemma_coverage <dbl>, age_range <dbl>

De conditie form_type == "WS" binnen filter() moeten we lezen als ‘behoud de observaties waarbij form_type gelijk is aan WS’. We zien dat 48 van de 89 vragenlijst in de oorspronkelijke dataset aan deze conditie voldoen. Wanneer we met alleen deze data willen verder werken dan zouden we ervoor kunnen kiezen om deze weg te schrijven naar een nieuwe datatabel (met de inmiddels bekende operator <-).

wordbank_WS <- wordbank_datasets %>% 
  filter(form_type == "WS")

De functie filter() werkt met condities waaraan voldaan moet worden. Afhankelijk van het type variabele kunnen die een andere vorm aannemen. Bij factoren zal het doorgaans gaan om het al dan niet gelijk zijn aan een bepaald level (==: gelijk aan, !=: is niet gelijk aan) waarbij de naam van het level tussen aanhalingstekens moet staan. Bij numerieke variabelen kan er ook gekeken worden of een getal groter (>) of kleiner (<) is dan een bepaalde waarde. Willen we bijvoorbeeld alleen kijken naar datasets waarin de babies maximaal 18 maanden oud zijn dan kunnen we de variabele age_max beperken:

wordbank_datasets %>% 
  filter(age_max <= 18)

# A tibble: 31 × 9
   instrument_id language           form  form_type age_min age_max has_grammar
   <fct>         <fct>              <fct> <fct>       <dbl>   <dbl>       <dbl>
 1 3             Croatian           WG    WG              8      16           0
 2 7             English (American) WG    WG              8      18           0
 3 9             French (Quebecois) WG    WG              8      16           0
 4 16            Mandarin (Beijing) IC    WG             12      16           0
 5 21            Russian            WG    WG              8      18           0
 6 23            Slovak             WG    WG              8      16           0
 7 25            Spanish (Mexican)  WG    WG              8      18           0
 8 27            Swedish            WG    WG              8      16           0
 9 29            Turkish            WG    WG              8      16           0
10 38            Kigiriama          WG    WG              8      15           0
# ℹ 21 more rows
# ℹ 2 more variables: unilemma_coverage <dbl>, age_range <dbl>
…
wordbank_datasets %>% 
  slice_max(age_max)

# A tibble: 1 × 9
  instrument_id language          form     form_type age_min age_max has_grammar
  <fct>         <fct>             <fct>    <fct>       <dbl>   <dbl>       <dbl>
1 32            English (British) TEDS Th… WS             34      47           1
# ℹ 2 more variables: unilemma_coverage <dbl>, age_range <dbl>

wordbank_datasets %>% 
  slice_min(age_min,
            n = 3)

# A tibble: 41 × 9
   instrument_id language            form  form_type age_min age_max has_grammar
   <fct>         <fct>               <fct> <fct>       <dbl>   <dbl>       <dbl>
 1 14            Italian             WG    WG              7      24           0
 2 1             British Sign Langu… WG    WG              8      36           0
 3 3             Croatian            WG    WG              8      16           0
 4 5             Danish              WG    WG              8      20           0
 5 7             English (American)  WG    WG              8      18           0
 6 9             French (Quebecois)  WG    WG              8      16           0
 7 19            Norwegian           WG    WG              8      20           0
 8 21            Russian             WG    WG              8      18           0
 9 23            Slovak              WG    WG              8      16           0
10 25            Spanish (Mexican)   WG    WG              8      18           0
# ℹ 31 more rows
# ℹ 2 more variables: unilemma_coverage <dbl>, age_range <dbl>
…
4.3 Variabelen selecteren

We hebben nu steeds gekeken hoe je observaties (rijen) kunt uitlichten uit een dataset. Hetzelfde kunnen we ook doen met variabelen. De functie select() is hierbij de belangrijkste functie. Aan deze functie geven we de variabelen mee die we willen behouden in een vervolgstap. Stel we willen in onze dataset wordbank_datasets alleen verder met de variabelen instrument_id en language. We voegen dan deze variabelen gescheiden door een , toe aan de functie select():

wordbank_datasets %>% 
  select(instrument_id, language)

# A tibble: 89 × 2
   instrument_id language             
   <fct>         <fct>                
 1 1             British Sign Language
 2 2             Cantonese            
 3 3             Croatian             
 4 4             Croatian             
 5 5             Danish               
 6 6             Danish               
 7 7             English (American)   
 8 8             English (American)   
 9 9             French (Quebecois)   
10 10            French (Quebecois)   
# ℹ 79 more rows

Let erop dat je in dit geval deze verandering alleen tijdelijk hebt gemaakt. Het is nu nog niet zo dat je de variabele definitief hebt verwijderd uit de datatabel. Om dat voor elkaar te krijgen zul je de actie toe moeten schrijven aan een naam met de operator <-, zoals we al vaker hebben gezien.

Wanneer je meerdere opeenvolgende variabelen wilt toevoegen kun je gebruik maken van de operator :, die je moet lezen als ‘t/m’. Deze operator is te combineren met , als je daarnaast ook nog extra variabelen wilt toevoegen die verderop in de dataset voorkomen. Dit scheelt je typewerk.

wordbank_datasets %>% 
  select(instrument_id, language, form_type:has_grammar)

# A tibble: 89 × 6
   instrument_id language              form_type age_min age_max has_grammar
   <fct>         <fct>                 <fct>       <dbl>   <dbl>       <dbl>
 1 1             British Sign Language WG              8      36           0
 2 2             Cantonese             WS             16      30           0
 3 3             Croatian              WG              8      16           0
 4 4             Croatian              WS             16      30           0
 5 5             Danish                WG              8      20           0
 6 6             Danish                WS             16      36           1
 7 7             English (American)    WG              8      18           0
 8 8             English (American)    WS             16      30           1
 9 9             French (Quebecois)    WG              8      16           0
10 10            French (Quebecois)    WS             16      30           1
# ℹ 79 more rows

Soms is het handiger om niet de variabelen die je wilt behouden, maar juist die variabelen die je niet wilt behouden te noemen. Hiervoor kun je de operator - gebruiken voor de naam van de variabele die je niet meer wilt gebruiken. Dus bijvoorbeeld om de variabele form uit te sluiten gebruiken we:

wordbank_datasets %>% 
  select(- form)

# A tibble: 89 × 8
   instrument_id language              form_type age_min age_max has_grammar
   <fct>         <fct>                 <fct>       <dbl>   <dbl>       <dbl>
 1 1             British Sign Language WG              8      36           0
 2 2             Cantonese             WS             16      30           0
 3 3             Croatian              WG              8      16           0
 4 4             Croatian              WS             16      30           0
 5 5             Danish                WG              8      20           0
 6 6             Danish                WS             16      36           1
 7 7             English (American)    WG              8      18           0
 8 8             English (American)    WS             16      30           1
 9 9             French (Quebecois)    WG              8      16           0
10 10            French (Quebecois)    WS             16      30           1
# ℹ 79 more rows
# ℹ 2 more variables: unilemma_coverage <dbl>, age_range <dbl>

Door de pipe kunnen we select() combineren de eerder geïntroduceerde werkwoorden om de dataset tegelijkertijd ook in te perken op basis van observaties. Zo kunnen we select() combineren met filter(), bijvoorbeeld om een dataset te maken met de eerste drie variabelen met alleen vragenlijsten van type WS:

wordbank_datasets %>% 
  filter(form_type == "WS") %>% 
  select(instrument_id, language)

# A tibble: 48 × 2
   instrument_id language          
   <fct>         <fct>             
 1 2             Cantonese         
 2 4             Croatian          
 3 6             Danish            
 4 8             English (American)
 5 10            French (Quebecois)
 6 11            German            
 7 13            Hebrew            
 8 15            Italian           
 9 17            Mandarin (Beijing)
10 18            Mandarin (Beijing)
# ℹ 38 more rows
…
# A tibble: 3 × 4
  instrument_id language form_type age_range
  <fct>         <fct>    <fct>         <dbl>
1 999           Irish    WS               NA
2 9999          Dutch    WS               NA
3 99999         Croatian WG               NA

We zien inderdaad in de kolom age_range drie keer NA verschijnen. De ontkenning !is.na() kunnen we gebruiken in combinatie met filter() om deze observaties uit de dataset te verwijderen.

wordbank_dataset_NA %>% 
  filter(!is.na(age_range))

# A tibble: 89 × 4
   instrument_id language              form_type age_range
   <fct>         <fct>                 <fct>         <dbl>
 1 1             British Sign Language WG               28
 2 2             Cantonese             WS               14
 3 3             Croatian              WG                8
 4 4             Croatian              WS               14
 5 5             Danish                WG               12
 6 6             Danish                WS               20
 7 7             English (American)    WG               10
 8 8             English (American)    WS               14
 9 9             French (Quebecois)    WG                8
10 10            French (Quebecois)    WS               14
# ℹ 79 more rows

Zoals eerder gezien, kunnen we hier ook meerdere variabelenamen invoeren gescheiden door een ,. Een alternatieve functie is drop_na() die, zoals de naam als zegt, de observaties verwijdert die een ontbrekende waarde hebben op de variabele die als argument wordt meegegeven:

wordbank_dataset_NA %>% 
  drop_na(age_range)

# A tibble: 89 × 4
   instrument_id language              form_type age_range
   <fct>         <fct>                 <fct>         <dbl>
 1 1             British Sign Language WG               28
 2 2             Cantonese             WS               14
 3 3             Croatian              WG                8
 4 4             Croatian              WS               14
 5 5             Danish                WG               12
 6 6             Danish                WS               20
 7 7             English (American)    WG               10
 8 8             English (American)    WS               14
 9 9             French (Quebecois)    WG                8
10 10            French (Quebecois)    WS               14
# ℹ 79 more rows

Zoals altijd, om deze wijziging blijvend te maken moeten we de datatabel weer toeschrijven aan een naam met <-.

4.5 Simpele tellingen

Wanneer je begint te werken met een dataset wil je allereerst een goed beeld krijgen van de data. Nadat je eventueel de naam en het type van een of meerdere variabelen hebt aangepast (zie Hoofdstuk 3), is het handig om tellingen te maken van relevante variabelen. Dit geeft je een idee van wat je kan verwachten en of er bijvoorbeeld dubbelingen in de data zitten. We kunnen hiervoor de functie count() gebruiken. We geven als argument de naam van de variabele mee waarin we geïnteresseerd zijn, in dit geval language. Deze functie geeft een tabel waarin het aantal voorkomens staat vermeld in de kolom n.

wordbank_dataset_NA %>% 
  count(language)

# A tibble: 42 × 2
   language                   n
   <fct>                  <int>
 1 American Sign Language     5
 2 Arabic (Saudi)             3
 3 British Sign Language      1
 4 Cantonese                  1
 5 Catalan                    2
 6 Croatian                   3
 7 Czech                      1
 8 Danish                     2
 9 Dutch                      8
10 English (American)         4
# ℹ 32 more rows

We kunnen de tellingen in n met arrange() ordenen van klein naar groot …

wordbank_dataset_NA %>% 
  count(language) %>% 
  arrange(n)

# A tibble: 42 × 2
   language                  n
   <fct>                 <int>
 1 British Sign Language     1
 2 Cantonese                 1
 3 Czech                     1
 4 English (Australian)      1
 5 English (Irish)           1
 6 Estonian                  1
 7 German                    1
 8 Greek (Cypriot)           1
 9 Hungarian                 1
10 Spanish (Argentinian)     1
# ℹ 32 more rows

… of met toevoeging van desc() van groot naar klein:

wordbank_dataset_NA %>% 
  count(language) %>% 
  arrange(desc(n))

# A tibble: 42 × 2
   language                   n
   <fct>                  <int>
 1 Dutch                      8
 2 American Sign Language     5
 3 English (American)         4
 4 English (British)          4
 5 Finnish                    4
 6 Arabic (Saudi)             3
 7 Croatian                   3
 8 Korean                     3
 9 Mandarin (Beijing)         3
10 Catalan                    2
# ℹ 32 more rows
…
Soms wil je al iets meer de diepte in met je analyse. Stel je wilt kijken naar voorkomens van een variabele binnen verschillende niveaus van een andere variabele. Je kunt dan gebruikmaken van group_by(). Wanneer we de variabele form_type meegeven als argument dan krijgen we tellingen die weergeven hoe vaak elke taal voorkomt per type vragenlijst (‘WG’ en ‘WS’):

wordbank_dataset_NA %>% 
  group_by(form_type) %>% 
  count(language)

# A tibble: 72 × 3
# Groups:   form_type [2]
   form_type language                   n
   <fct>     <fct>                  <int>
 1 WG        American Sign Language     2
 2 WG        Arabic (Saudi)             1
 3 WG        British Sign Language      1
 4 WG        Catalan                    1
 5 WG        Croatian                   2
 6 WG        Danish                     1
 7 WG        Dutch                      5
 8 WG        English (American)         2
 9 WG        English (British)          2
10 WG        Finnish                    2
# ℹ 62 more rows

Je kunt bovenstaand resultaat ook krijgen door beide variabelen mee te geven aan group_by:

wordbank_dataset_NA %>% 
  group_by(form_type, language) %>% 
  count()

# A tibble: 72 × 3
# Groups:   form_type, language [72]
   form_type language                   n
   <fct>     <fct>                  <int>
 1 WG        American Sign Language     2
 2 WG        Arabic (Saudi)             1
 3 WG        British Sign Language      1
 4 WG        Catalan                    1
 5 WG        Croatian                   2
 6 WG        Danish                     1
 7 WG        Dutch                      5
 8 WG        English (American)         2
 9 WG        English (British)          2
10 WG        Finnish                    2
# ℹ 62 more rows
…
