Onderzoeksontwerp en Beschrijvende Statistiek - 3 Data in R
…
In deze cursus leer je werken met zo’n 100 veelgebruikte functies in R. Het is belangrijk om voor jezelf een goed overzicht te houden van deze functies. Werk hier actief aan door een eigen codeboek aan te maken. Voeg tijdens of na afloop van het bestuderen van dit hoofdstuk de codes toe aan jouw codeboek.

3.1 Datatabellen en vectoren

We kunnen data in R in verschillende formaten tegenkomen. Tijdens deze cursus krijgen we vooral te maken met datatabellen en vectoren. Een datatabel wordt in tidyverse een tibble genoemd en gaat in R ook wel door het leven onder de naam data.frame.1 Een datatabel bestaat uit rijen (de observaties) en kolommen (de variabelen) en doet daarmee erg denken aan een gewone tabel of spreadsheet zoals je dat misschien wel kent uit bijvoorbeeld Excel.
1 Het tidyverse is voor een groot deel ontwikkeld door de Nieuw-Zeelander Hadley Wickham. Het woord tibble schijnt te verwijzen naar de manier waarop in Nieuw-Zeeland table wordt uitgesproken.

Hieronder vind je een voorbeeld van een tibble met data uit het package wordbankr. Dit package geeft toegang tot Wordbank een grote database met daarin informatie over hoe de woordenschat van kinderen zich ontwikkelt in verschillende talen.2
2 Voor een uitgebreide beschrijving van deze data, zie de website van het Wordbank Project: https://wordbank.stanford.edu/

De data in deze database zijn verzameld aan de hand van de MacArthur-Bates Communicative Development Inventory (MB-CDI), een vragenlijst waarin ouders aangeven welke woorden hun kind op welke leeftijd kent. Informatie over alle beschikbare versies van deze vragenlijst in verschillende talen hebben we opgeslagen in de tibble met de naam wordbank_datasets.

wordbank_datasets

# A tibble: 89 × 8
   instrument_id language            form  form_type age_min age_max has_grammar
           <dbl> <chr>               <chr> <chr>       <dbl>   <dbl>       <dbl>
 1             1 British Sign Langu… WG    WG              8      36           0
 2             2 Cantonese           WS    WS             16      30           0
 3             3 Croatian            WG    WG              8      16           0
 4             4 Croatian            WS    WS             16      30           0
 5             5 Danish              WG    WG              8      20           0
 6             6 Danish              WS    WS             16      36           1
 7             7 English (American)  WG    WG              8      18           0
 8             8 English (American)  WS    WS             16      30           1
 9             9 French (Quebecois)  WG    WG              8      16           0
10            10 French (Quebecois)  WS    WS             16      30           1
# ℹ 79 more rows
# ℹ 1 more variable: unilemma_coverage <dbl>
…
wordbank_datasets <- read_csv2(file = "_datasets/wordbank_datasets.csv")

ℹ Using "','" as decimal and "'.'" as grouping mark. Use `read_delim()` for more control.

Rows: 89 Columns: 1
── Column specification ────────────────────────────────────────────────────────
Delimiter: ";"
chr (1): instrument_id,language,form,form_type,age_min,age_max,has_grammar,u...

ℹ Use `spec()` to retrieve the full column specification for this data.
ℹ Specify the column types or set `show_col_types = FALSE` to quiet this message.

wordbank_datasets

# A tibble: 89 × 1
   instrument_id,language,form,form_type,age_min,age_max,has_grammar,unilemma_…¹
   <chr>                                                                        
 1 1,British Sign Language,WG,WG,8,36,0,0.95                                    
 2 2,Cantonese,WS,WS,16,30,0,0.95                                               
 3 3,Croatian,WG,WG,8,16,0,1                                                    
 4 4,Croatian,WS,WS,16,30,0,1                                                   
 5 5,Danish,WG,WG,8,20,0,1                                                      
 6 6,Danish,WS,WS,16,36,1,0.93                                                  
 7 7,English (American),WG,WG,8,18,0,1                                          
 8 8,English (American),WS,WS,16,30,1,1                                         
 9 9,French (Quebecois),WG,WG,8,16,0,1                                          
10 10,French (Quebecois),WS,WS,16,30,1,0.99                                     
# ℹ 79 more rows
# ℹ abbreviated name:
#   ¹​`instrument_id,language,form,form_type,age_min,age_max,has_grammar,unilemma_coverage`
…
wordbank_datasets <- read_csv(file = "_datasets/wordbank_datasets.csv")

Rows: 89 Columns: 8
── Column specification ────────────────────────────────────────────────────────
Delimiter: ","
chr (3): language, form, form_type
dbl (5): instrument_id, age_min, age_max, has_grammar, unilemma_coverage

ℹ Use `spec()` to retrieve the full column specification for this data.
ℹ Specify the column types or set `show_col_types = FALSE` to quiet this message.

wordbank_datasets

# A tibble: 89 × 8
   instrument_id language            form  form_type age_min age_max has_grammar
           <dbl> <chr>               <chr> <chr>       <dbl>   <dbl>       <dbl>
 1             1 British Sign Langu… WG    WG              8      36           0
 2             2 Cantonese           WS    WS             16      30           0
 3             3 Croatian            WG    WG              8      16           0
 4             4 Croatian            WS    WS             16      30           0
 5             5 Danish              WG    WG              8      20           0
 6             6 Danish              WS    WS             16      36           1
 7             7 English (American)  WG    WG              8      18           0
 8             8 English (American)  WS    WS             16      30           1
 9             9 French (Quebecois)  WG    WG              8      16           0
10            10 French (Quebecois)  WS    WS             16      30           1
# ℹ 79 more rows
# ℹ 1 more variable: unilemma_coverage <dbl>
…
We kunnen ook de functie names() gebruiken:

names(wordbank_datasets_slechte_namen)

[1] "InstrumentID"      "language"          "form"             
[4] "form type"         "age_min"           "age_max"          
[7] "has_grammar"       "unilemma_coverage"

We zien twee variabelen die een afwijkende naam hebben. InstrumentID gebruikt hoofdletters en geen _ om inhoudswoorden (instrument en id) te scheiden en form type heeft een spatie i.p.v. een underscore. Dat laatste is zeker iets om te vermijden, want dat kan allerlei ongemak opleveren. We kunnen deze namen handmatig aanpassen met de functie rename():

rename(.data = wordbank_datasets_slechte_namen,
       instrument_id = InstrumentID,
       form_type = `form type`)

# A tibble: 89 × 8
   instrument_id language            form  form_type age_min age_max has_grammar
           <dbl> <chr>               <chr> <chr>       <dbl>   <dbl>       <dbl>
 1             1 British Sign Langu… WG    WG              8      36           0
 2             2 Cantonese           WS    WS             16      30           0
 3             3 Croatian            WG    WG              8      16           0
 4             4 Croatian            WS    WS             16      30           0
 5             5 Danish              WG    WG              8      20           0
 6             6 Danish              WS    WS             16      36           1
 7             7 English (American)  WG    WG              8      18           0
 8             8 English (American)  WS    WS             16      30           1
 9             9 French (Quebecois)  WG    WG              8      16           0
10            10 French (Quebecois)  WS    WS             16      30           1
# ℹ 79 more rows
# ℹ 1 more variable: unilemma_coverage <dbl>

Bij rename() geven we als eerste argument .data de naam van de datatabel mee waarin we namen willen veranderen en vervolgens, gescheiden door komma’s de namen van de variabelen die we willen hernoemen. Hierbij geef je (verwarrend genoeg) eerst de nieuwe naam van de variabele en dan de oude naam. Variabelennamen met een spatie erin moet je tussen backticks ` ` zetten.

We zijn er nu nog niet. Met bovenstaande code hebben we de namen nog niet blijvend veranderd. Ze zijn alleen veranderd in de print out die je te zien krijgt in R. Dit kunnen we zien als we de datatabel nogmaals naar het scherm printen:

wordbank_datasets_slechte_namen

# A tibble: 89 × 8
   InstrumentID language           form  `form type` age_min age_max has_grammar
          <dbl> <chr>              <chr> <chr>         <dbl>   <dbl>       <dbl>
 1            1 British Sign Lang… WG    WG                8      36           0
 2            2 Cantonese          WS    WS               16      30           0
 3            3 Croatian           WG    WG                8      16           0
 4            4 Croatian           WS    WS               16      30           0
 5            5 Danish             WG    WG                8      20           0
 6            6 Danish             WS    WS               16      36           1
 7            7 English (American) WG    WG                8      18           0
 8            8 English (American) WS    WS               16      30           1
 9            9 French (Quebecois) WG    WG                8      16           0
10           10 French (Quebecois) WS    WS               16      30           1
# ℹ 79 more rows
# ℹ 1 more variable: unilemma_coverage <dbl>
…
[1] "instrument_id"     "language"          "form"             
[4] "form_type"         "age_min"           "age_max"          
[7] "has_grammar"       "unilemma_coverage"

3.2.2 Type van variabelen aanpassen

Nu de variabelen allemaal een eigen kolom en een goede naam hebben, moeten we nog controleren of ze ook van het juiste type zijn. Bij het inlezen van de data doet R een educated guess naar het type van de variabelen op basis van de data die in de variabelen zitten. Zitten er getallen in dan zal het gaan voor dbl (of num, int) en wanneer er alleen tekst in zit dan voor char. In de meeste gevallen gaat dit goed, maar niet altijd.

Er is één ding om goed op te letten en dat is het feit dat we in statistische analyse categorische variabelen doorgaans factoren noemen. Factoren zijn categorische variabelen die een beperkt aantal terugkerende waarden kunnen aannemen. Die waarden noemen we levels. In R krijgen factoren het datatype factor.

Neem als voorbeeld de variabele language uit onze datatabel wordbank_datasets, die we eerder ook als vector languages hebben opgeslagen. In deze variabelen staan de talen van alle vragenlijsten die in de wordbank zitten opgesomd. We zien dat sommige talen meerdere keren voorkomen. Bij de eerste 10 observaties komen 4 talen 2 keer voor (Croatian, Danish, English (American) en French (Quebecois)):

wordbank_datasets

# A tibble: 89 × 8
   instrument_id language            form  form_type age_min age_max has_grammar
           <dbl> <chr>               <chr> <chr>       <dbl>   <dbl>       <dbl>
 1             1 British Sign Langu… WG    WG              8      36           0
 2             2 Cantonese           WS    WS             16      30           0
 3             3 Croatian            WG    WG              8      16           0
 4             4 Croatian            WS    WS             16      30           0
 5             5 Danish              WG    WG              8      20           0
 6             6 Danish              WS    WS             16      36           1
 7             7 English (American)  WG    WG              8      18           0
 8             8 English (American)  WS    WS             16      30           1
 9             9 French (Quebecois)  WG    WG              8      16           0
10            10 French (Quebecois)  WS    WS             16      30           1
# ℹ 79 more rows
# ℹ 1 more variable: unilemma_coverage <dbl>

Met de functie dinstinct() voor datatabellen of unique voor vectoren kunnen we laten zien dat er in de 89 observaties in de data 42 verschillende talen voorkomen:

distinct(.data = wordbank_datasets, language)

# A tibble: 42 × 1
   language             
   <chr>                
 1 British Sign Language
 2 Cantonese            
 3 Croatian             
 4 Danish               
 5 English (American)   
 6 French (Quebecois)   
 7 German               
 8 Hebrew               
 9 Italian              
10 Mandarin (Beijing)   
# ℹ 32 more rows
…
De functie mutate() komen we nog vaak tegen. We kunnen deze bijvoorbeeld ook gebruiken om een nieuwe variabele aan te maken uit bestaande variabelen. Zo zouden we de variabele age_range kunnen aanmaken die het leeftijdsbereik uitdrukt als het verschil tussen de minimumleeftijd (age_min) en de maximumleeftijd (age_max):

wordbank_datasets <-
  mutate(wordbank_datasets,
         age_range = age_max - age_min)

relocate(.data = wordbank_datasets,
         age_range,
         .after = age_max)

# A tibble: 89 × 9
   instrument_id language  form  form_type age_min age_max age_range has_grammar
   <fct>         <fct>     <fct> <fct>       <dbl>   <dbl>     <dbl>       <dbl>
 1 1             British … WG    WG              8      36        28           0
 2 2             Cantonese WS    WS             16      30        14           0
 3 3             Croatian  WG    WG              8      16         8           0
 4 4             Croatian  WS    WS             16      30        14           0
 5 5             Danish    WG    WG              8      20        12           0
 6 6             Danish    WS    WS             16      36        20           1
 7 7             English … WG    WG              8      18        10           0
 8 8             English … WS    WS             16      30        14           1
 9 9             French (… WG    WG              8      16         8           0
10 10            French (… WS    WS             16      30        14           1
# ℹ 79 more rows
# ℹ 1 more variable: unilemma_coverage <dbl>
…
