Onderzoeksontwerp en Beschrijvende Statistiek - 5 Grafieken maken
…
Figuur 5.1: Ons doel voor dit hoofdstuk

5.1.1 de data

De data waar we onze grafiek op baseren staan in het databestand wordbank_dutch_WG_items.csv in de map _datasets in ons R-project. We gaan dit bestand eerst inlezen en kijken of we aanpassingen moeten doen aan de namen of het type van de variabelen. Zorg voordat we beginnen dat je het package tidyverse hebt geladen. Dit zorgt ervoor dat het package ggplot2 ook actief is.

library(tidyverse)

#inlezen databestand
wordbank_dutch <- read_csv("_datasets/wordbank_dutch_WG_items.csv")

#data bekijken
wordbank_dutch

# A tibble: 3,969 × 5
   item_id item_definition category month proportion
     <dbl> <chr>           <chr>    <dbl>      <dbl>
 1       1 au/ai(pijn)     sounds       8       0   
 2       1 au/ai(pijn)     sounds       9       0   
 3       1 au/ai(pijn)     sounds      10       0   
 4       1 au/ai(pijn)     sounds      11       0.11
 5       1 au/ai(pijn)     sounds      12       0.14
 6       1 au/ai(pijn)     sounds      13       0.17
 7       1 au/ai(pijn)     sounds      14       0.14
 8       1 au/ai(pijn)     sounds      15       0.17
 9       1 au/ai(pijn)     sounds      16       0.4 
10       2 behbeh(schaap)  sounds       8       0   
# ℹ 3,959 more rows
…
wordbank_dutch <- wordbank_dutch %>% 
  mutate(across(item_id:category, as.factor))

wordbank_dutch

# A tibble: 3,969 × 5
   item_id item_definition category month proportion
   <fct>   <fct>           <fct>    <dbl>      <dbl>
 1 1       au/ai(pijn)     sounds       8       0   
 2 1       au/ai(pijn)     sounds       9       0   
 3 1       au/ai(pijn)     sounds      10       0   
 4 1       au/ai(pijn)     sounds      11       0.11
 5 1       au/ai(pijn)     sounds      12       0.14
 6 1       au/ai(pijn)     sounds      13       0.17
 7 1       au/ai(pijn)     sounds      14       0.14
 8 1       au/ai(pijn)     sounds      15       0.17
 9 1       au/ai(pijn)     sounds      16       0.4 
10 2       behbeh(schaap)  sounds       8       0   
# ℹ 3,959 more rows
…
