Onderzoeksontwerp en Beschrijvende Statistiek - 7 Numerieke variabelen
…
Het probleem zit dieper. Wanneer we de kleur willen laten variëren op basis van een variabele, dan moeten de waardes van die variabele in dezelfde kolom staan. Dat is hier niet het geval. We hebben per kind een aparte kolom voor comprehension en een voor production. Het zijn twee aparte variabelen. De dataset staat in wat we noemen wide format.

wordbank_dutch_child %>% 
  print(n = 2)

# A tibble: 303 × 4
  child_id   age comprehension production
  <fct>    <dbl>         <dbl>      <dbl>
1 76526       18           162         37
2 76527       18           405         28
# ℹ 301 more rows

Dit formaat is handig als we de variabelen apart willen laten zien, maar niet als we ze eigenlijk als waardes van één variabele willen behandelen. We moeten dan dus een kolom aanmaken waarin we per kind twee rijen krijgen, een met de waarde voor comprehension en een voor production. Dit noemen we long format. We gaan hiervoor een nieuwe variabele aanmaken die we skill noemen. Dit doen we met de functie pivot_longer() (zoals je misschien al had geraden is er ook de tegenhanger pivot_wider()). In het argument cols geven we aan welke variabelen we willen samenvoegen tot een nieuwe variabele (de kolomnamen worden de namen van de levels). Met names_to geven we de naam van de nieuwe variabele aan en met values_to geven we aan in welke variabele de waarden de oorspronkelijke variabelen terecht gaan komen. Het eerste kind (met id 76526) scoorde 162 op comprehension en 37 op production. Deze waardes zullen op twee rijen komen in de nieuwe variabele number_of_words.

dutch_child_long <- wordbank_dutch_child %>% 
  pivot_longer(cols = c(comprehension, production), 
               names_to = "skill", 
               values_to = "number_of_words")

dutch_child_long %>% 
  print(n = 4)

# A tibble: 606 × 4
  child_id   age skill         number_of_words
  <fct>    <dbl> <chr>                   <dbl>
1 76526       18 comprehension             162
2 76526       18 production                 37
3 76527       18 comprehension             405
4 76527       18 production                 28
# ℹ 602 more rows
…
# A tibble: 1 × 4
  mean_age sd_age mean_comprehension median_comprehension
     <dbl>  <dbl>              <dbl>                <dbl>
1     22.0   4.47               412.                  402

De functie summarize() kun je combineren met group_by() om beschrijvende statistieken per level van een (andere) variabele te berekenen.

wordbank_dutch_child %>%
  group_by(age) %>% 
  summarize(mean_comprehension = mean(comprehension),
            mean_production = mean(production)) %>% 
  print(n = 4)

# A tibble: 16 × 3
    age mean_comprehension mean_production
  <dbl>              <dbl>           <dbl>
1    16               125.            32.5
2    17               243.            50.5
3    18               282.            65.2
4    19               257.            83  
# ℹ 12 more rows

In long format kunnen we group_by ook gebruiken om beschrijvende statistieken voor combinaties van variabelen te berekenen:

dutch_child_long %>%
  group_by(age, skill) %>% 
  summarize(mean_number_words = mean(number_of_words)) %>% 
  print(n = 4)

`summarise()` has grouped output by 'age'. You can override using the `.groups`
argument.

# A tibble: 32 × 3
# Groups:   age [16]
    age skill         mean_number_words
  <dbl> <fct>                     <dbl>
1    16 comprehension             125. 
2    16 production                 32.5
3    17 comprehension             243. 
4    17 production                 50.5
# ℹ 28 more rows
…
7.3 Centrummaten zichtbaar maken

Berekende beschrijvende statistieken van numerieke variabelen kunnen we zichtbaar maken met ggplot. We gebruiken hiervoor geom_point() i.p.v. een staafdiagram. Dit omdat we later ook de ruwe datapunten zichtbaar willen maken. We berekenen als voorbeeld eerst het gemiddelde aantal begrepen en geproduceerde woorden per leeftijd:

dutch_means <- dutch_child_long %>% 
  group_by(age, skill) %>% 
  summarize(mean_number_words = mean(number_of_words))

`summarise()` has grouped output by 'age'. You can override using the `.groups`
argument.

dutch_means

# A tibble: 32 × 3
# Groups:   age [16]
     age skill         mean_number_words
   <dbl> <fct>                     <dbl>
 1    16 comprehension             125. 
 2    16 production                 32.5
 3    17 comprehension             243. 
 4    17 production                 50.5
 5    18 comprehension             282. 
 6    18 production                 65.2
 7    19 comprehension             257. 
 8    19 production                 83  
 9    20 comprehension             414. 
10    20 production                188. 
# ℹ 22 more rows
…
