Onderzoeksontwerp en Beschrijvende Statistiek - Practicum 2
…
Hoeveel observaties (rijen) en variabelen (kolommen) telt de dataset?

Vorige week hebben we hiervoor de functies nrow() en ncol() geleerd.

# Aantal observaties (rijen) en variabelen (kolommen)
  nrow(ww); ncol(ww)

[1] 285

[1] 5

 #alternatief printen van tibble naar de console: 
   ww

# A tibble: 285 × 5
   werkwoord frequentie regelmatigheid lengte ety_leeftijd
   <chr>          <dbl> <chr>           <dbl> <chr>       
 1 blijken         9.88 irregular           5 Germanic    
 2 gloeien         6.91 regular             5 Germanic    
 3 glimmen         7.03 irregular           4 Germanic    
 4 rijzen          7.37 irregular           4 Germanic    
 5 werpen          8.49 irregular           4 Germanic    
 6 delven          6.17 irregular           4 WestGermanic
 7 snikken         6.72 regular             4 Germanic    
 8 laten          11.1  irregular           4 Germanic    
 9 snijden         7.89 irregular           5 Germanic    
10 schrikken       8.20 irregular           6 DutchGerman 
# ℹ 275 more rows

   print(ww)

# A tibble: 285 × 5
   werkwoord frequentie regelmatigheid lengte ety_leeftijd
   <chr>          <dbl> <chr>           <dbl> <chr>       
 1 blijken         9.88 irregular           5 Germanic    
 2 gloeien         6.91 regular             5 Germanic    
 3 glimmen         7.03 irregular           4 Germanic    
 4 rijzen          7.37 irregular           4 Germanic    
 5 werpen          8.49 irregular           4 Germanic    
 6 delven          6.17 irregular           4 WestGermanic
 7 snikken         6.72 regular             4 Germanic    
 8 laten          11.1  irregular           4 Germanic    
 9 snijden         7.89 irregular           5 Germanic    
10 schrikken       8.20 irregular           6 DutchGerman 
# ℹ 275 more rows
…
een tibble die alleen regelmatige werkwoorden bevat.

een tibble die alleen onregelmatige werkwoorden bevat die als etymologische leeftijd Germanic hebben.

een tibble die alleen werkwoorden bevat met een frequentie lager dan 5 of hoger dan 10.

een tibble die alleen werkwoorden bevat met een lengte tussen de 4 en 6 letters (dus 4, 5 of 6).

Gebruik hiervoor de functie filter(). Zie sectie 4.2.

#a.
filter(ww, regelmatigheid == "regular")

# A tibble: 143 × 6
   werkwoord frequentie regelmatigheid lengte ety_leeftijd ety_age     
   <fct>          <dbl> <fct>           <dbl> <chr>        <fct>       
 1 gloeien         6.91 regular             5 Germanic     Germanic    
 2 snikken         6.72 regular             4 Germanic     Germanic    
 3 zetten          9.78 regular             3 WestGermanic WestGermanic
 4 spelen          9.69 regular             5 WestGermanic WestGermanic
 5 krabben         6.56 regular             4 Germanic     Germanic    
 6 scheiden        7.62 regular             6 IndoEuropean IndoEuropean
 7 voegen          8.26 regular             4 Germanic     Germanic    
 8 doemen          6.57 regular             4 Germanic     Germanic    
 9 snoeren         5.16 regular             5 Germanic     Germanic    
10 schikken        7.61 regular             5 DutchGerman  DutchGerman 
# ℹ 133 more rows

#b.
filter(ww, regelmatigheid == "irregular", ety_age == "Germanic")

# A tibble: 92 × 6
   werkwoord frequentie regelmatigheid lengte ety_leeftijd ety_age 
   <fct>          <dbl> <fct>           <dbl> <chr>        <fct>   
 1 blijken         9.88 irregular           5 Germanic     Germanic
 2 glimmen         7.03 irregular           4 Germanic     Germanic
 3 rijzen          7.37 irregular           4 Germanic     Germanic
 4 werpen          8.49 irregular           4 Germanic     Germanic
 5 laten          11.1  irregular           4 Germanic     Germanic
 6 snijden         7.89 irregular           5 Germanic     Germanic
 7 blazen          7.46 irregular           5 Germanic     Germanic
 8 worden         12.7  irregular           4 Germanic     Germanic
 9 smijten         6.85 irregular           5 Germanic     Germanic
10 meten           7.37 irregular           4 Germanic     Germanic
# ℹ 82 more rows

#c.
filter(ww, frequentie < 5 | frequentie > 10)

# A tibble: 45 × 6
   werkwoord frequentie regelmatigheid lengte ety_leeftijd ety_age     
   <fct>          <dbl> <fct>           <dbl> <chr>        <fct>       
 1 laten          11.1  irregular           4 Germanic     Germanic    
 2 spreken        10.1  irregular           6 WestGermanic WestGermanic
 3 rijgen          4.92 irregular           4 DutchGerman  DutchGerman 
 4 worden         12.7  irregular           4 Germanic     Germanic    
 5 zien           11.5  irregular           3 Germanic     Germanic    
 6 pluizen         4.03 irregular           5 DutchGerman  DutchGerman 
 7 hebben         13.1  irregular           3 IndoEuropean IndoEuropean
 8 zeggen         11.8  irregular           3 Germanic     Germanic    
 9 gaan           11.8  irregular           2 Germanic     Germanic    
10 zwieren         4.86 regular             5 Dutch        Dutch       
# ℹ 35 more rows

  #alternatief:
  filter(ww, xor(frequentie < 5, frequentie > 10))

# A tibble: 45 × 6
   werkwoord frequentie regelmatigheid lengte ety_leeftijd ety_age     
   <fct>          <dbl> <fct>           <dbl> <chr>        <fct>       
 1 laten          11.1  irregular           4 Germanic     Germanic    
 2 spreken        10.1  irregular           6 WestGermanic WestGermanic
 3 rijgen          4.92 irregular           4 DutchGerman  DutchGerman 
 4 worden         12.7  irregular           4 Germanic     Germanic    
 5 zien           11.5  irregular           3 Germanic     Germanic    
 6 pluizen         4.03 irregular           5 DutchGerman  DutchGerman 
 7 hebben         13.1  irregular           3 IndoEuropean IndoEuropean
 8 zeggen         11.8  irregular           3 Germanic     Germanic    
 9 gaan           11.8  irregular           2 Germanic     Germanic    
10 zwieren         4.86 regular             5 Dutch        Dutch       
# ℹ 35 more rows

#d.
filter(ww, lengte > 3 & lengte < 7)

# A tibble: 239 × 6
   werkwoord frequentie regelmatigheid lengte ety_leeftijd ety_age     
   <fct>          <dbl> <fct>           <dbl> <chr>        <fct>       
 1 blijken         9.88 irregular           5 Germanic     Germanic    
 2 gloeien         6.91 regular             5 Germanic     Germanic    
 3 glimmen         7.03 irregular           4 Germanic     Germanic    
 4 rijzen          7.37 irregular           4 Germanic     Germanic    
 5 werpen          8.49 irregular           4 Germanic     Germanic    
 6 delven          6.17 irregular           4 WestGermanic WestGermanic
 7 snikken         6.72 regular             4 Germanic     Germanic    
 8 laten          11.1  irregular           4 Germanic     Germanic    
 9 snijden         7.89 irregular           5 Germanic     Germanic    
10 schrikken       8.20 irregular           6 DutchGerman  DutchGerman 
# ℹ 229 more rows

  #alternatief:
  filter(ww, between(lengte,4,6)) #zie cheat sheet

# A tibble: 239 × 6
   werkwoord frequentie regelmatigheid lengte ety_leeftijd ety_age     
   <fct>          <dbl> <fct>           <dbl> <chr>        <fct>       
 1 blijken         9.88 irregular           5 Germanic     Germanic    
 2 gloeien         6.91 regular             5 Germanic     Germanic    
 3 glimmen         7.03 irregular           4 Germanic     Germanic    
 4 rijzen          7.37 irregular           4 Germanic     Germanic    
 5 werpen          8.49 irregular           4 Germanic     Germanic    
 6 delven          6.17 irregular           4 WestGermanic WestGermanic
 7 snikken         6.72 regular             4 Germanic     Germanic    
 8 laten          11.1  irregular           4 Germanic     Germanic    
 9 snijden         7.89 irregular           5 Germanic     Germanic    
10 schrikken       8.20 irregular           6 DutchGerman  DutchGerman 
# ℹ 229 more rows
…
Beperk de tibble ww achtereenvolgens tot:

een tibble met alleen de variabelen werkwoord, regelmatigheid en ety_age.

een tibble met alle variabelen behalve lengte.

Gebruik hiervoor de functie select(). Zie sectie 4.3

#a.
select(ww, werkwoord, ety_age, regelmatigheid)

# A tibble: 285 × 3
   werkwoord ety_age      regelmatigheid
   <fct>     <fct>        <fct>         
 1 blijken   Germanic     irregular     
 2 gloeien   Germanic     regular       
 3 glimmen   Germanic     irregular     
 4 rijzen    Germanic     irregular     
 5 werpen    Germanic     irregular     
 6 delven    WestGermanic irregular     
 7 snikken   Germanic     regular       
 8 laten     Germanic     irregular     
 9 snijden   Germanic     irregular     
10 schrikken DutchGerman  irregular     
# ℹ 275 more rows

#b.
select(ww, -lengte)

# A tibble: 285 × 5
   werkwoord frequentie regelmatigheid ety_leeftijd ety_age     
   <fct>          <dbl> <fct>          <chr>        <fct>       
 1 blijken         9.88 irregular      Germanic     Germanic    
 2 gloeien         6.91 regular        Germanic     Germanic    
 3 glimmen         7.03 irregular      Germanic     Germanic    
 4 rijzen          7.37 irregular      Germanic     Germanic    
 5 werpen          8.49 irregular      Germanic     Germanic    
 6 delven          6.17 irregular      WestGermanic WestGermanic
 7 snikken         6.72 regular        Germanic     Germanic    
 8 laten          11.1  irregular      Germanic     Germanic    
 9 snijden         7.89 irregular      Germanic     Germanic    
10 schrikken       8.20 irregular      DutchGerman  DutchGerman 
# ℹ 275 more rows
…
Opdracht
Hint
Code

Verwissel de positie van de variabelen frequentie en regelmatigheid

Gebruik hiervoor de functie relocate(). Zie sectie 3.2.2.

# Verwisselen van positie
relocate(ww, 
         frequentie, 
         .after = regelmatigheid)

# A tibble: 285 × 7
   werkwoord freq_int regelmatigheid frequentie lengte ety_leeftijd ety_age     
   <fct>        <dbl> <fct>               <dbl>  <dbl> <chr>        <fct>       
 1 blijken         10 irregular            9.88      5 Germanic     Germanic    
 2 gloeien          7 regular              6.91      5 Germanic     Germanic    
 3 glimmen          7 irregular            7.03      4 Germanic     Germanic    
 4 rijzen           7 irregular            7.37      4 Germanic     Germanic    
 5 werpen           8 irregular            8.49      4 Germanic     Germanic    
 6 delven           6 irregular            6.17      4 WestGermanic WestGermanic
 7 snikken          7 regular              6.72      4 Germanic     Germanic    
 8 laten           11 irregular           11.1       4 Germanic     Germanic    
 9 snijden          8 irregular            7.89      5 Germanic     Germanic    
10 schrikken        8 irregular            8.20      6 DutchGerman  DutchGerman 
# ℹ 275 more rows
…
